dump_split.vcd
$date
	Tue Feb 24 21:47:54 2026
$end
$version
	Icarus Verilog
$end
$timescale
	1ps
$end
$scope module tb_split_core $end
$var wire 1 ! d_wbusy $end
$var wire 1 " i_rstrb $end
$var wire 32 # i_rdata [31:0] $end
$var wire 1 $ i_rbusy $end
$var wire 32 % i_addr [31:0] $end
$var wire 4 & d_wmask [3:0] $end
$var wire 32 ' d_wdata [31:0] $end
$var wire 1 ( d_rstrb $end
$var wire 32 ) d_rdata [31:0] $end
$var wire 1 * d_rbusy $end
$var wire 32 + d_addr [31:0] $end
$var parameter 32 , ADDR_WIDTH $end
$var parameter 32 - MEM_WORDS $end
$var reg 1 . clk $end
$var reg 1 * d_rbusy_reg $end
$var reg 32 / d_rdata_next [31:0] $end
$var reg 1 $ i_rbusy_reg $end
$var reg 32 0 i_rdata_next [31:0] $end
$var reg 8 1 irq_lines [7:0] $end
$var reg 32 2 mcause_seen0 [31:0] $end
$var reg 32 3 mcause_seen1 [31:0] $end
$var reg 1 4 reset_n $end
$var integer 32 5 cycle_cnt [31:0] $end
$scope module core $end
$var wire 32 6 CSR_read [31:0] $end
$var wire 1 7 LOAD_sign $end
$var wire 32 8 aluIn1 [31:0] $end
$var wire 32 9 aluOut_base [31:0] $end
$var wire 32 : aluOut_muldiv [31:0] $end
$var wire 1 . clk $end
$var wire 1 ; current_unaligned_long $end
$var wire 1 * d_rbusy $end
$var wire 32 < d_rdata [31:0] $end
$var wire 1 ( d_rstrb $end
$var wire 1 ! d_wbusy $end
$var wire 1 = div_sign $end
$var wire 1 > ex_fire $end
$var wire 1 ? ex_flush $end
$var wire 1 @ ex_stall $end
$var wire 1 $ i_rbusy $end
$var wire 32 A i_rdata [31:0] $end
$var wire 1 " i_rstrb $end
$var wire 30 B instr [31:2] $end
$var wire 1 C instr_ready $end
$var wire 1 D interrupt $end
$var wire 1 E interrupt_return $end
$var wire 8 F irq_i [7:0] $end
$var wire 1 G isALU $end
$var wire 1 H isDivide $end
$var wire 1 I predicate $end
$var wire 1 4 reset_n $end
$var wire 32 J rs1 [31:0] $end
$var wire 32 K rs2 [31:0] $end
$var wire 1 L sign1 $end
$var wire 1 M sign2 $end
$var wire 32 N writeBackData [31:0] $end
$var wire 1 O writeBack_en $end
$var wire 33 P signed2 [32:0] $end
$var wire 33 Q signed1 [32:0] $end
$var wire 32 R shifter_in [31:0] $end
$var wire 32 S shifter [31:0] $end
$var wire 1 T sel_mtvec $end
$var wire 1 U sel_mstatus $end
$var wire 1 V sel_mepc $end
$var wire 1 W sel_mcause $end
$var wire 1 X sel_cyclesh $end
$var wire 1 Y sel_cycles $end
$var wire 5 Z rdId [4:0] $end
$var wire 32 [ quotientN [31:0] $end
$var wire 64 \ multiply [63:0] $end
$var wire 1 ] mem_halfwordAccess $end
$var wire 1 ^ mem_byteAccess $end
$var wire 1 _ mcause_lock $end
$var wire 1 ` long_instr_if $end
$var wire 24 a loadstore_addr [23:0] $end
$var wire 32 b leftshift [31:0] $end
$var wire 1 c isStore $end
$var wire 1 d isSYSTEM $end
$var wire 1 e isMULHSU $end
$var wire 1 f isMULH $end
$var wire 1 g isLoad $end
$var wire 1 h isLUI $end
$var wire 1 i isJALR $end
$var wire 1 j isJAL $end
$var wire 1 k isBranch $end
$var wire 1 l isAUIPC $end
$var wire 1 m isALUreg $end
$var wire 1 n isALUimm $end
$var wire 8 o irq_prio [7:0] $end
$var wire 32 p irq_mcause [31:0] $end
$var wire 32 q irq_cause [31:0] $end
$var wire 32 r i_addr [31:0] $end
$var wire 8 s funct3Is [7:0] $end
$var wire 1 t funcM $end
$var wire 1 u ex_valid $end
$var wire 1 v divstep_do $end
$var wire 32 w dividendN [31:0] $end
$var wire 32 x decompressed [31:0] $end
$var wire 32 y decomp_input [31:0] $end
$var wire 4 z d_wmask [3:0] $end
$var wire 32 { d_wdata [31:0] $end
$var wire 32 | d_addr [31:0] $end
$var wire 1 } current_cache_hit $end
$var wire 32 ~ cached_mem [31:0] $end
$var wire 1 !" any_irq $end
$var wire 32 "" aluPlus [31:0] $end
$var wire 32 #" aluOut [31:0] $end
$var wire 33 $" aluMinus [32:0] $end
$var wire 32 %" aluIn2 [31:0] $end
$var wire 1 &" aluBusy $end
$var wire 32 '" Uimm [31:0] $end
$var wire 32 (" Simm [31:0] $end
$var wire 4 )" STORE_wmask [3:0] $end
$var wire 24 *" PCplusImm [23:0] $end
$var wire 24 +" PCplus4_if [23:0] $end
$var wire 24 ," PCplus2_if [23:0] $end
$var wire 24 -" PCinc [23:0] $end
$var wire 24 ." PC_new [23:0] $end
$var wire 1 /" LTU $end
$var wire 1 0" LT $end
$var wire 16 1" LOAD_halfword [15:0] $end
$var wire 32 2" LOAD_data [31:0] $end
$var wire 8 3" LOAD_byte [7:0] $end
$var wire 32 4" Jimm [31:0] $end
$var wire 32 5" Iimm [31:0] $end
$var wire 1 6" EQ $end
$var wire 32 7" CSR_write [31:0] $end
$var wire 32 8" CSR_modifier [31:0] $end
$var wire 32 9" Bimm [31:0] $end
$var parameter 32 :" ADDR_WIDTH $end
$var parameter 32 ;" RESET_ADDR $end
$var reg 24 <" PC_if [23:0] $end
$var reg 22 =" cached_addr [23:2] $end
$var reg 32 >" cached_data [31:0] $end
$var reg 64 ?" cycles [63:0] $end
$var reg 32 @" divResult [31:0] $end
$var reg 32 A" dividend [31:0] $end
$var reg 63 B" divisor [62:0] $end
$var reg 1 C" fetch_second_half $end
$var reg 30 D" id_instr [31:2] $end
$var reg 1 E" id_long $end
$var reg 24 F" id_pc [23:0] $end
$var reg 1 u id_valid $end
$var reg 1 G" if_pending $end
$var reg 1 H" interrupt_request_sticky $end
$var reg 32 I" mcause [31:0] $end
$var reg 24 J" mepc [23:0] $end
$var reg 1 K" mstatus $end
$var reg 24 L" mtvec [23:0] $end
$var reg 32 M" quotient [31:0] $end
$var reg 32 N" quotient_msk [31:0] $end
$var integer 32 O" _i_p2 [31:0] $end
$scope module _decomp_p2 $end
$var wire 32 P" c [31:0] $end
$var wire 12 Q" swspImm [11:0] $end
$var wire 5 R" shiftImm [4:0] $end
$var wire 5 S" rwl [4:0] $end
$var wire 5 T" rwh [4:0] $end
$var wire 5 U" rcl [4:0] $end
$var wire 5 V" rch [4:0] $end
$var wire 12 W" lwswImm [11:0] $end
$var wire 12 X" lwspImm [11:0] $end
$var wire 32 Y" luiImm [31:0] $end
$var wire 21 Z" jalImm [20:0] $end
$var wire 13 [" bImm [12:0] $end
$var wire 12 \" addi4spnImm [11:0] $end
$var wire 12 ]" addi16spImm [11:0] $end
$var wire 12 ^" addImm [11:0] $end
$var parameter 32 _" illegal $end
$var parameter 32 `" unknown $end
$var parameter 5 a" x0 $end
$var parameter 5 b" x1 $end
$var parameter 5 c" x2 $end
$var reg 32 d" d [31:0] $end
$upscope $end
$upscope $end
$scope begin $unm_blk_2 $end
$var integer 32 e" i [31:0] $end
$upscope $end
$upscope $end
$enddefinitions $end
$comment Show the parameter values. $end
$dumpall
b10 c"
b1 b"
b0 a"
b0 `"
b0 _"
b0 ;"
b11000 :"
b100000000 -
b11000 ,
$end
#0
$dumpvars
b100000000 e"
b0 d"
bx ^"
bx0000 ]"
b0xxxxxxxx00 \"
bx0 ["
bx0 Z"
bx000000000000 Y"
b0xxxxxx00 X"
b0xxxxx00 W"
b1xxx V"
b1xxx U"
bx T"
bx S"
bx R"
b0xxxxxx00 Q"
bx P"
b100000 O"
bx N"
bx M"
bx L"
xK"
bx J"
bx I"
xH"
xG"
bx F"
xE"
bx D"
xC"
bx B"
bx A"
bx @"
bx ?"
bx >"
bx ="
bx <"
bx0 9"
bx 8"
bx 7"
x6"
bx 5"
bx0 4"
bx 3"
bx 2"
bx 1"
x0"
x/"
bx ."
bx -"
bx ,"
bx +"
bx *"
bx )"
bx ("
bx000000000000 '"
x&"
bx %"
bx $"
bx #"
bx ""
0!"
bx ~
x}
b0xxxxxxxxxxxxxxxxxxxxxxxx |
bx {
bx z
bx y
b0 x
bx w
xv
xu
xt
bx s
b0xxxxxxxxxxxxxxxxxxxxxx00 r
b0 q
bx0000000000000000000000000000000 p
b0 o
xn
xm
xl
xk
xj
xi
xh
xg
xf
xe
xd
xc
bx b
bx a
x`
x_
x^
x]
bx \
bx [
bx Z
xY
xX
xW
xV
xU
xT
bx S
bx R
bx Q
bx P
xO
bx N
xM
xL
bx K
bx J
xI
xH
xG
b0 F
xE
xD
xC
bx B
bx A
x@
x?
x>
x=
bx <
x;
bx :
bx 9
bx 8
x7
bx 6
b0 5
04
b0 3
b0 2
b0 1
bx 0
bx /
0.
b0xxxxxxxxxxxxxxxxxxxxxxxx +
x*
bx )
x(
bx '
bx &
b0xxxxxxxxxxxxxxxxxxxxxx00 %
x$
bx #
x"
0!
$end
#5000
b0 #"
b0 9
1I
b0 :
b1 )"
b10 ."
b0 b
0=
b0 *"
00"
b0 S
b0 \
0M
0/"
16"
b0 6
b0 7"
b0 p
b0 +
b0 |
b0 a
b0 R
0L
b0 $"
b0 [
b0 w
0D
0f
0e
0G
0E
b0 ""
b0 P
b0 %"
b0 '
b0 {
0H
b0 8"
b0 &
b0 z
0O
0?
0;
b10 -"
b0 Z
b1 s
b0 '"
b0 5"
b0 ("
b0 9"
b0 4"
1g
0n
0l
0c
0m
0h
0k
0i
0j
0d
b0 Q
b0 8
b0 J
b0 K
0t
1^
0]
0U
0T
0V
0W
0Y
0X
0(
0>
0@
0C
b0 %
b0 r
0}
b0 @"
0&"
b0 N"
b0 M"
1v
b0 B"
b0 A"
0H"
0_
b0 I"
b0 J"
b0 L"
0K"
0E"
b0 F"
b0 B
b0 D"
0u
0"
0G"
0C"
b0 >"
b1111111111111111111111 ="
b100 +"
b10 ,"
b0 <"
1.
#10000
0.
#15000
0*
0$
1.
#20000
0.
#25000
1.
#30000
0.
#35000
1.
#40000
0.
#45000
1C
1"
1G"
14
1.
#50000
0.
#55000
b0xx0 ."
b0x00 %
b0x00 r
x;
1O
0C
b0xx0 -"
1(
1>
b1 5
b100000000000000000010010011 #
b100000000000000000010010011 0
b100000000000000000010010011 A
1$
bx +"
bx ,"
b0xx0 <"
0"
0G"
xE"
1u
bx >"
x}
b0 ="
1.
#60000
0.
#65000
b10011 N
b10011 2"
b10011 3"
07
0O
b10011 1"
0(
0>
1C
0u
1"
1G"
0$
b10011 )
b10011 /
b10011 <
1*
b10 5
1.
#70000
0.
#75000
bx ."
b0xxxxxxxxxxxxxxxxxxxxxx00 %
b0xxxxxxxxxxxxxxxxxxxxxx00 r
1O
0C
bx -"
1(
1>
0@
b11 5
0*
bx #
bx 0
bx A
1$
bx <"
0"
0G"
bx *"
b0xx0 F"
1u
1.
#80000
0.
#85000
0O
0(
0>
1C
0u
1"
1G"
0$
1*
b100 5
1.
#90000
0.
#95000
1O
0C
1(
1>
0@
b101 5
0*
1$
0"
0G"
bx F"
1u
1.
#100000
0.
#105000
0O
0(
0>
1C
0u
1"
1G"
0$
1*
b110 5
1.
#110000
0.
#115000
1O
0C
1(
1>
0@
b111 5
0*
1$
0"
0G"
1u
1.
#120000
0.
#125000
0O
0(
0>
1C
0u
1"
1G"
0$
1*
b1000 5
1.
#130000
0.
#135000
1O
0C
1(
1>
0@
b1001 5
0*
1$
0"
0G"
1u
1.
#140000
0.
#145000
0O
0(
0>
1C
0u
1"
1G"
0$
1*
b1010 5
1.
#150000
0.
#155000
1O
0C
1(
1>
0@
b1011 5
0*
1$
0"
0G"
1u
1.
#160000
0.
#165000
0O
0(
0>
1C
0u
1"
1G"
0$
1*
b1100 5
1.
#170000
0.
#175000
1O
0C
1(
1>
0@
b1101 5
0*
1$
0"
0G"
1u
1.
#180000
0.
#185000
0O
0(
0>
1C
0u
1"
1G"
0$
1*
b1110 5
1.
#190000
0.
#195000
1O
0C
1(
1>
0@
b1111 5
0*
1$
0"
0G"
1u
1.
#200000
0.
#205000
0O
0(
0>
1C
0u
1"
1G"
0$
1*
b10000 5
1.
#210000
0.
#215000
1O
0C
1(
1>
0@
b10001 5
0*
1$
0"
0G"
1u
1.
#220000
0.
#225000
0O
0(
0>
1C
0u
1"
1G"
0$
1*
b10010 5
1.
#230000
0.
#235000
1O
0C
1(
1>
0@
b10011 5
0*
1$
0"
0G"
1u
1.
#240000
0.
#245000
0O
0(
0>
1C
0u
1"
1G"
0$
1*
b10100 5
1.
#250000
0.
#255000
1O
0C
1(
1>
0@
b10101 5
0*
1$
0"
0G"
1u
1.
#260000
0.
#265000
0O
0(
0>
1C
0u
1"
1G"
0$
1*
b10110 5
1.
#270000
0.
#275000
1O
0C
1(
1>
0@
b10111 5
0*
1$
0"
0G"
1u
1.
#280000
0.
#285000
0O
0(
0>
1C
0u
1"
1G"
0$
1*
b11000 5
1.
#290000
0.
#295000
1O
0C
1(
1>
0@
b11001 5
0*
1$
0"
0G"
1u
1.
#300000
0.
#305000
0O
0(
0>
1C
0u
1"
1G"
0$
1*
b11010 5
1.
#310000
0.
#315000
1O
0C
1(
1>
0@
b11011 5
0*
1$
0"
0G"
1u
1.
#320000
0.
#325000
0O
0(
0>
1C
0u
1"
1G"
0$
1*
b11100 5
1.
#330000
0.
#335000
1O
0C
1(
1>
0@
b11101 5
0*
1$
0"
0G"
1u
1.
#340000
0.
#345000
0O
0(
0>
1C
0u
1"
1G"
0$
1*
b11110 5
1.
#350000
0.
#355000
1O
0C
1(
1>
0@
b11111 5
0*
1$
0"
0G"
1u
1.
#360000
0.
#365000
0O
0(
0>
1C
0u
1"
1G"
0$
1*
b100000 5
1.
#370000
0.
#375000
1O
0C
1(
1>
0@
b100001 5
0*
1$
0"
0G"
1u
1.
#380000
0.
#385000
0O
0(
0>
1C
0u
1"
1G"
0$
1*
b100010 5
1.
#390000
0.
#395000
1O
0C
1(
1>
0@
b100011 5
0*
1$
0"
0G"
1u
1.
#400000
0.
#405000
0O
0(
0>
1C
0u
1"
1G"
0$
1*
b100100 5
1.
#410000
0.
#415000
1O
0C
1(
1>
0@
b100101 5
0*
1$
0"
0G"
1u
1.
#420000
0.
#425000
0O
0(
0>
1C
0u
1"
1G"
0$
1*
b100110 5
1.
#430000
0.
#435000
1O
0C
1(
1>
0@
b100111 5
0*
1$
0"
0G"
1u
1.
#440000
0.
#445000
0O
0(
0>
1C
0u
1"
1G"
0$
1*
b101000 5
1.
#450000
0.
#455000
1O
0C
1(
1>
0@
b101001 5
0*
1$
0"
0G"
1u
1.
#460000
0.
#465000
0O
0(
0>
1C
0u
1"
1G"
0$
1*
b101010 5
1.
#470000
0.
#475000
1O
0C
1(
1>
0@
b101011 5
0*
1$
0"
0G"
1u
1.
#480000
0.
#485000
0O
0(
0>
1C
0u
1"
1G"
0$
1*
b101100 5
1.
#490000
0.
#495000
1O
0C
1(
1>
0@
b101101 5
0*
1$
0"
0G"
1u
1.
#500000
0.
#505000
0O
0(
0>
1C
0u
1"
1G"
0$
1*
b101110 5
1.
#510000
0.
#515000
1O
0C
1(
1>
0@
b101111 5
0*
1$
0"
0G"
1u
1.
#520000
0.
#525000
0O
0(
0>
1C
0u
1"
1G"
0$
1*
b110000 5
1.
#530000
0.
#535000
1O
0C
1(
1>
0@
b110001 5
0*
1$
0"
0G"
1u
1.
#540000
0.
#545000
0O
0(
0>
1C
0u
1"
1G"
0$
1*
b110010 5
1.
#550000
0.
#555000
1O
0C
1(
1>
0@
b110011 5
0*
1$
0"
0G"
1u
1.
#560000
0.
#565000
0O
0(
0>
1C
0u
1"
1G"
0$
1*
b110100 5
1.
#570000
0.
#575000
1O
0C
1(
1>
0@
b110101 5
0*
1$
0"
0G"
1u
1.
#580000
0.
#585000
0O
0(
0>
1C
0u
1"
1G"
0$
1*
b110110 5
1.
#590000
0.
#595000
1O
0C
1(
1>
0@
b110111 5
0*
1$
0"
0G"
1u
1.
#600000
0.
#605000
0O
0(
0>
1C
0u
1"
1G"
0$
1*
b111000 5
1.
#610000
0.
#615000
1O
0C
1(
1>
0@
b111001 5
0*
1$
0"
0G"
1u
1.
#620000
0.
#625000
0O
0(
0>
1C
0u
1"
1G"
0$
1*
b111010 5
1.
#630000
0.
#635000
1O
0C
1(
1>
0@
b111011 5
0*
1$
0"
0G"
1u
1.
#640000
0.
#645000
0O
0(
0>
1C
0u
1"
1G"
0$
1*
b111100 5
1.
#650000
0.
#655000
1O
0C
1(
1>
0@
b111101 5
0*
1$
0"
0G"
1u
1.
#660000
0.
#665000
0O
0(
0>
1C
0u
1"
1G"
0$
1*
b111110 5
1.
#670000
0.
#675000
1O
0C
1(
1>
0@
b111111 5
0*
1$
0"
0G"
1u
1.
#680000
0.
#685000
0O
0(
0>
1C
0u
1"
1G"
0$
1*
b1000000 5
1.
#690000
0.
#695000
1O
0C
1(
1>
0@
b1000001 5
0*
1$
0"
0G"
1u
1.
#700000
0.
#705000
0O
0(
0>
1C
0u
1"
1G"
0$
1*
b1000010 5
1.
#710000
0.
#715000
1O
0C
1(
1>
0@
b1000011 5
0*
1$
0"
0G"
1u
1.
#720000
0.
#725000
0O
0(
0>
1C
0u
1"
1G"
0$
1*
b1000100 5
1.
#730000
0.
#735000
1O
0C
1(
1>
0@
b1000101 5
0*
1$
0"
0G"
1u
1.
#740000
0.
#745000
0O
0(
0>
1C
0u
1"
1G"
0$
1*
b1000110 5
1.
#750000
0.
#755000
1O
0C
1(
1>
0@
b1000111 5
0*
1$
0"
0G"
1u
1.
#760000
0.
#765000
0O
0(
0>
1C
0u
1"
1G"
0$
1*
b1001000 5
1.
#770000
0.
#775000
1O
0C
1(
1>
0@
b1001001 5
0*
1$
0"
0G"
1u
1.
#780000
0.
#785000
0O
0(
0>
1C
0u
1"
1G"
0$
1*
b1001010 5
1.
#790000
0.
#795000
1O
0C
1(
1>
0@
b1001011 5
0*
1$
0"
0G"
1u
1.
#800000
0.
#805000
0O
0(
0>
1C
0u
1"
1G"
0$
1*
b1001100 5
1.
#810000
0.
#815000
1O
0C
1(
1>
0@
b1001101 5
0*
1$
0"
0G"
1u
1.
#820000
0.
#825000
0O
0(
0>
1C
0u
1"
1G"
0$
1*
b1001110 5
1.
#830000
0.
#835000
1O
0C
1(
1>
0@
b1001111 5
0*
1$
0"
0G"
1u
1.
#840000
0.
#845000
0O
0(
0>
1C
0u
1"
1G"
1H"
0$
1*
b1010000 5
b1 o
1!"
b1 1
b1 F
1.
#850000
0.
#855000
1O
0C
1(
1>
0@
b1010001 5
0*
1$
0"
0G"
1u
1.
#860000
0.
#865000
0O
0(
0>
1C
0u
1"
1G"
0$
1*
b1010010 5
b0 o
0!"
b0 1
b0 F
1.
#870000
0.
#875000
1O
0C
1(
1>
0@
b1010011 5
0*
1$
0"
0G"
1u
1.
#880000
0.
#885000
0O
0(
0>
1C
0u
1"
1G"
0$
1*
b1010100 5
1.
#890000
0.
#895000
1O
0C
1(
1>
0@
b1010101 5
0*
1$
0"
0G"
1u
1.
#900000
0.
#905000
0O
0(
0>
1C
0u
1"
1G"
0$
1*
b1010110 5
1.
#910000
0.
#915000
1O
0C
1(
1>
0@
b1010111 5
0*
1$
0"
0G"
1u
1.
#920000
0.
#925000
0O
0(
0>
1C
0u
1"
1G"
0$
1*
b1011000 5
1.
#930000
0.
#935000
1O
0C
1(
1>
0@
b1011001 5
0*
1$
0"
0G"
1u
1.
#940000
0.
#945000
0O
0(
0>
1C
0u
1"
1G"
0$
1*
b1011010 5
1.
#950000
0.
#955000
1O
0C
1(
1>
0@
b1011011 5
0*
1$
0"
0G"
1u
1.
#960000
0.
#965000
0O
0(
0>
1C
0u
1"
1G"
0$
1*
b1011100 5
1.
#970000
0.
#975000
1O
0C
1(
1>
0@
b1011101 5
0*
1$
0"
0G"
1u
1.
#980000
0.
#985000
0O
0(
0>
1C
0u
1"
1G"
0$
1*
b1011110 5
1.
#990000
0.
#995000
1O
0C
1(
1>
0@
b1011111 5
0*
1$
0"
0G"
1u
1.
#1000000
0.
#1005000
0O
0(
0>
1C
0u
1"
1G"
0$
1*
b1100000 5
1.
#1010000
0.
#1015000
1O
0C
1(
1>
0@
b1100001 5
0*
1$
0"
0G"
1u
1.
#1020000
0.
#1025000
0O
0(
0>
1C
0u
1"
1G"
0$
1*
b1100010 5
1.
#1030000
0.
#1035000
1O
0C
1(
1>
0@
b1100011 5
0*
1$
0"
0G"
1u
1.
#1040000
0.
#1045000
0O
0(
0>
1C
0u
1"
1G"
0$
1*
b1100100 5
1.
#1050000
0.
#1055000
1O
0C
1(
1>
0@
b1100101 5
0*
1$
0"
0G"
1u
1.
#1060000
0.
#1065000
0O
0(
0>
1C
0u
1"
1G"
0$
1*
b1100110 5
1.
#1070000
0.
#1075000
1O
0C
1(
1>
0@
b1100111 5
0*
1$
0"
0G"
1u
1.
#1080000
0.
#1085000
0O
0(
0>
1C
0u
1"
1G"
0$
1*
b1101000 5
1.
#1090000
0.
#1095000
1O
0C
1(
1>
0@
b1101001 5
0*
1$
0"
0G"
1u
1.
#1100000
0.
#1105000
0O
0(
0>
1C
0u
1"
1G"
0$
1*
b1101010 5
1.
#1110000
0.
#1115000
1O
0C
1(
1>
0@
b1101011 5
0*
1$
0"
0G"
1u
1.
#1120000
0.
#1125000
0O
0(
0>
1C
0u
1"
1G"
0$
1*
b1101100 5
1.
#1130000
0.
#1135000
1O
0C
1(
1>
0@
b1101101 5
0*
1$
0"
0G"
1u
1.
#1140000
0.
#1145000
0O
0(
0>
1C
0u
1"
1G"
0$
1*
b1101110 5
1.
#1150000
0.
#1155000
1O
0C
1(
1>
0@
b1101111 5
0*
1$
0"
0G"
1u
1.
#1160000
0.
#1165000
0O
0(
0>
1C
0u
1"
1G"
0$
1*
b1110000 5
1.
#1170000
0.
#1175000
1O
0C
1(
1>
0@
b1110001 5
0*
1$
0"
0G"
1u
1.
#1180000
0.
#1185000
0O
0(
0>
1C
0u
1"
1G"
0$
1*
b1110010 5
1.
#1190000
0.
#1195000
1O
0C
1(
1>
0@
b1110011 5
0*
1$
0"
0G"
1u
1.
#1200000
0.
#1205000
0O
0(
0>
1C
0u
1"
1G"
0$
1*
b1110100 5
1.
#1210000
0.
#1215000
1O
0C
1(
1>
0@
b1110101 5
0*
1$
0"
0G"
1u
1.
#1220000
0.
#1225000
0O
0(
0>
1C
0u
1"
1G"
0$
1*
b1110110 5
1.
#1230000
0.
#1235000
1O
0C
1(
1>
0@
b1110111 5
0*
1$
0"
0G"
1u
1.
#1240000
0.
#1245000
0O
0(
0>
1C
0u
1"
1G"
0$
1*
b1111000 5
1.
#1250000
0.
#1255000
1O
0C
1(
1>
0@
b1111001 5
0*
1$
0"
0G"
1u
1.
#1260000
0.
#1265000
0O
0(
0>
1C
0u
1"
1G"
0$
1*
b1111010 5
1.
#1270000
0.
#1275000
1O
0C
1(
1>
0@
b1111011 5
0*
1$
0"
0G"
1u
1.
#1280000
0.
#1285000
0O
0(
0>
1C
0u
1"
1G"
0$
1*
b1111100 5
1.
#1290000
0.
#1295000
1O
0C
1(
1>
0@
b1111101 5
0*
1$
0"
0G"
1u
1.
#1300000
0.
#1305000
0O
0(
0>
1C
0u
1"
1G"
0$
1*
b1111110 5
1.
#1310000
0.
#1315000
1O
0C
1(
1>
0@
b1111111 5
0*
1$
0"
0G"
1u
1.
#1320000
0.
#1325000
0O
0(
0>
1C
0u
1"
1G"
0$
1*
b10000000 5
1.
#1330000
0.
#1335000
1O
0C
1(
1>
0@
b10000001 5
0*
1$
0"
0G"
1u
1.
#1340000
0.
#1345000
0O
0(
0>
1C
0u
1"
1G"
0$
1*
b10000010 5
1.
#1350000
0.
#1355000
1O
0C
1(
1>
0@
b10000011 5
0*
1$
0"
0G"
1u
1.
#1360000
0.
#1365000
0O
0(
0>
1C
0u
1"
1G"
0$
1*
b10000100 5
1.
#1370000
0.
#1375000
1O
0C
1(
1>
0@
b10000101 5
0*
1$
0"
0G"
1u
1.
#1380000
0.
#1385000
0O
0(
0>
1C
0u
1"
1G"
0$
1*
b10000110 5
1.
#1390000
0.
#1395000
1O
0C
1(
1>
0@
b10000111 5
0*
1$
0"
0G"
1u
1.
#1400000
0.
#1405000
0O
0(
0>
1C
0u
1"
1G"
0$
1*
b10001000 5
1.
#1410000
0.
#1415000
1O
0C
1(
1>
0@
b10001001 5
0*
1$
0"
0G"
1u
1.
#1420000
0.
#1425000
0O
0(
0>
1C
0u
1"
1G"
0$
1*
b10001010 5
1.
#1430000
0.
#1435000
1O
0C
1(
1>
0@
b10001011 5
0*
1$
0"
0G"
1u
1.
#1440000
0.
#1445000
0O
0(
0>
1C
0u
1"
1G"
0$
1*
b10001100 5
1.
#1450000
0.
#1455000
1O
0C
1(
1>
0@
b10001101 5
0*
1$
0"
0G"
1u
1.
#1460000
0.
#1465000
0O
0(
0>
1C
0u
1"
1G"
0$
1*
b10001110 5
1.
#1470000
0.
#1475000
1O
0C
1(
1>
0@
b10001111 5
0*
1$
0"
0G"
1u
1.
#1480000
0.
#1485000
0O
0(
0>
1C
0u
1"
1G"
0$
1*
b10010000 5
1.
#1490000
0.
#1495000
1O
0C
1(
1>
0@
b10010001 5
0*
1$
0"
0G"
1u
1.
#1500000
0.
#1505000
0O
0(
0>
1C
0u
1"
1G"
0$
1*
b10010010 5
1.
#1510000
0.
#1515000
1O
0C
1(
1>
0@
b10010011 5
0*
1$
0"
0G"
1u
1.
#1520000
0.
#1525000
0O
0(
0>
1C
0u
1"
1G"
0$
1*
b10010100 5
1.
#1530000
0.
#1535000
1O
0C
1(
1>
0@
b10010101 5
0*
1$
0"
0G"
1u
1.
#1540000
0.
#1545000
0O
0(
0>
1C
0u
1"
1G"
0$
1*
b10010110 5
1.
#1550000
0.
#1555000
1O
0C
1(
1>
0@
b10010111 5
0*
1$
0"
0G"
1u
1.
#1560000
0.
#1565000
0O
0(
0>
1C
0u
1"
1G"
0$
1*
b10011000 5
1.
#1570000
0.
#1575000
1O
0C
1(
1>
0@
b10011001 5
0*
1$
0"
0G"
1u
1.
#1580000
0.
#1585000
0O
0(
0>
1C
0u
1"
1G"
0$
1*
b10011010 5
1.
#1590000
0.
#1595000
1O
0C
1(
1>
0@
b10011011 5
0*
1$
0"
0G"
1u
1.
#1600000
0.
#1605000
0O
0(
0>
1C
0u
1"
1G"
0$
1*
b10011100 5
1.
#1610000
0.
#1615000
1O
0C
1(
1>
0@
b10011101 5
0*
1$
0"
0G"
1u
1.
#1620000
0.
#1625000
0O
0(
0>
1C
0u
1"
1G"
0$
1*
b10011110 5
1.
#1630000
0.
#1635000
1O
0C
1(
1>
0@
b10011111 5
0*
1$
0"
0G"
1u
1.
#1640000
0.
#1645000
0O
0(
0>
1C
0u
1"
1G"
0$
1*
b10100000 5
1.
#1650000
0.
#1655000
1O
0C
1(
1>
0@
b10100001 5
0*
1$
0"
0G"
1u
1.
#1660000
0.
#1665000
0O
0(
0>
1C
0u
1"
1G"
0$
1*
b10100010 5
b1 q
b10 o
1!"
b10 1
b10 F
1.
#1670000
0.
#1675000
1O
0C
1(
1>
0@
b10100011 5
0*
1$
0"
0G"
1u
1.
#1680000
0.
#1685000
0O
0(
0>
1C
0u
1"
1G"
0$
1*
b10100100 5
b0 q
b0 o
0!"
b0 1
b0 F
1.
#1690000
0.
#1695000
1O
0C
1(
1>
0@
b10100101 5
0*
1$
0"
0G"
1u
1.
#1700000
0.
#1705000
0O
0(
0>
1C
0u
1"
1G"
0$
1*
b10100110 5
1.
#1710000
0.
#1715000
1O
0C
1(
1>
0@
b10100111 5
0*
1$
0"
0G"
1u
1.
#1720000
0.
#1725000
0O
0(
0>
1C
0u
1"
1G"
0$
1*
b10101000 5
1.
#1730000
0.
#1735000
1O
0C
1(
1>
0@
b10101001 5
0*
1$
0"
0G"
1u
1.
#1740000
0.
#1745000
0O
0(
0>
1C
0u
1"
1G"
0$
1*
b10101010 5
1.
#1750000
0.
#1755000
1O
0C
1(
1>
0@
b10101011 5
0*
1$
0"
0G"
1u
1.
#1760000
0.
#1765000
0O
0(
0>
1C
0u
1"
1G"
0$
1*
b10101100 5
1.
#1770000
0.
#1775000
1O
0C
1(
1>
0@
b10101101 5
0*
1$
0"
0G"
1u
1.
#1780000
0.
#1785000
0O
0(
0>
1C
0u
1"
1G"
0$
1*
b10101110 5
1.
#1790000
0.
#1795000
1O
0C
1(
1>
0@
b10101111 5
0*
1$
0"
0G"
1u
1.
#1800000
0.
#1805000
0O
0(
0>
1C
0u
1"
1G"
0$
1*
b10110000 5
1.
#1810000
0.
#1815000
1O
0C
1(
1>
0@
b10110001 5
0*
1$
0"
0G"
1u
1.
#1820000
0.
#1825000
0O
0(
0>
1C
0u
1"
1G"
0$
1*
b10110010 5
1.
#1830000
0.
#1835000
1O
0C
1(
1>
0@
b10110011 5
0*
1$
0"
0G"
1u
1.
#1840000
0.
#1845000
0O
0(
0>
1C
0u
1"
1G"
0$
1*
b10110100 5
1.
#1850000
0.
#1855000
1O
0C
1(
1>
0@
b10110101 5
0*
1$
0"
0G"
1u
1.
#1860000
0.
#1865000
0O
0(
0>
1C
0u
1"
1G"
0$
1*
b10110110 5
1.
#1870000
0.
#1875000
1O
0C
1(
1>
0@
b10110111 5
0*
1$
0"
0G"
1u
1.
#1880000
0.
#1885000
0O
0(
0>
1C
0u
1"
1G"
0$
1*
b10111000 5
1.
#1890000
0.
#1895000
1O
0C
1(
1>
0@
b10111001 5
0*
1$
0"
0G"
1u
1.
#1900000
0.
#1905000
0O
0(
0>
1C
0u
1"
1G"
0$
1*
b10111010 5
1.
#1910000
0.
#1915000
1O
0C
1(
1>
0@
b10111011 5
0*
1$
0"
0G"
1u
1.
#1920000
0.
#1925000
0O
0(
0>
1C
0u
1"
1G"
0$
1*
b10111100 5
1.
#1930000
0.
#1935000
1O
0C
1(
1>
0@
b10111101 5
0*
1$
0"
0G"
1u
1.
