dump.vcd
$date
	Wed Feb 25 08:03:46 2026
$end
$version
	Icarus Verilog
$end
$timescale
	1ps
$end
$scope module tb_femtorv32_wb $end
$var wire 2 ! dwb_bte_o [1:0] $end
$var wire 3 " dwb_cti_o [2:0] $end
$var wire 2 # iwb_bte_o [1:0] $end
$var wire 32 $ iwb_dat_o [31:0] $end
$var wire 4 % iwb_sel_o [3:0] $end
$var wire 1 & iwb_we_o $end
$var wire 128 ' proto_i_msg [127:0] $end
$var wire 1 ( proto_i_error $end
$var wire 128 ) proto_d_msg [127:0] $end
$var wire 1 * proto_d_error $end
$var wire 1 + iwb_stb_o $end
$var wire 1 , iwb_cyc_o $end
$var wire 3 - iwb_cti_o [2:0] $end
$var wire 32 . iwb_adr_o [31:0] $end
$var wire 8 / i_index [7:0] $end
$var wire 1 0 dwb_we_o $end
$var wire 1 1 dwb_stb_o $end
$var wire 4 2 dwb_sel_o [3:0] $end
$var wire 32 3 dwb_dat_o [31:0] $end
$var wire 1 4 dwb_cyc_o $end
$var wire 32 5 dwb_adr_o [31:0] $end
$var wire 8 6 d_index [7:0] $end
$var wire 128 7 cache_msg [127:0] $end
$var wire 1 8 cache_error $end
$var parameter 32 9 ADDR_WIDTH $end
$var parameter 32 : IWB_BURST_LEN $end
$var parameter 32 ; MEM_WORDS $end
$var parameter 32 < WB_WAIT_MAX $end
$var parameter 32 = WB_WAIT_MIN $end
$var parameter 32 > WB_WAIT_RANGE $end
$var reg 1 ? clk $end
$var reg 1 @ dwb_ack_i $end
$var reg 32 A dwb_dat_i [31:0] $end
$var reg 8 B irq_lines [7:0] $end
$var reg 1 C iwb_ack_i $end
$var reg 32 D iwb_dat_i [31:0] $end
$var reg 8 E lfsr [7:0] $end
$var reg 32 F mcause_seen0 [31:0] $end
$var reg 32 G mcause_seen1 [31:0] $end
$var reg 1 H reset_n $end
$var integer 32 I cache_line_fill_count [31:0] $end
$var integer 32 J cycle_count [31:0] $end
$var integer 32 K debug_pc_prev [31:0] $end
$var integer 32 L i [31:0] $end
$var integer 32 M instr_count [31:0] $end
$var integer 32 N iwb_burst_transaction_count [31:0] $end
$var integer 32 O run_between_irq [31:0] $end
$var integer 32 P run_post_irq [31:0] $end
$var integer 32 Q run_pre_irq [31:0] $end
$var integer 32 R wait_ctr [31:0] $end
$var integer 32 S wb_data_transaction_count [31:0] $end
$scope module cache_chk $end
$var wire 1 ? clk $end
$var wire 1 C iwb_ack $end
$var wire 30 T iwb_addr [31:2] $end
$var wire 1 U iwb_stb $end
$var wire 1 V rst $end
$var wire 3 W iwb_cti [2:0] $end
$var wire 28 X current_line [31:4] $end
$var reg 2 Y burst_count [1:0] $end
$var reg 30 Z burst_start_addr [31:2] $end
$var reg 1 [ burst_timeout $end
$var reg 1 8 cache_error $end
$var reg 128 \ error_msg [127:0] $end
$var reg 1 ] in_burst $end
$var integer 32 ^ burst_age [31:0] $end
$upscope $end
$scope module chk_d $end
$var wire 1 @ ack $end
$var wire 4 _ bus_type [3:0] $end
$var wire 1 ? clk $end
$var wire 3 ` cti [2:0] $end
$var wire 32 a data_i [31:0] $end
$var wire 1 b rst $end
$var wire 1 0 we $end
$var wire 1 1 stb $end
$var wire 4 c sel [3:0] $end
$var wire 32 d data_o [31:0] $end
$var wire 1 4 cyc $end
$var wire 32 e addr [31:0] $end
$var reg 1 f ack_prev $end
$var reg 1 g addr_change_during_transaction $end
$var reg 32 h addr_prev [31:0] $end
$var reg 3 i cti_prev [2:0] $end
$var reg 1 j cyc_prev $end
$var reg 1 k cyc_without_stb $end
$var reg 1 l data_change_during_transaction $end
$var reg 32 m data_prev [31:0] $end
$var reg 1 n early_cyc_termination $end
$var reg 128 o error_msg [127:0] $end
$var reg 1 p invalid_cti $end
$var reg 1 * protocol_error $end
$var reg 1 q stb_prev $end
$var reg 1 r stb_without_cyc $end
$var reg 1 s we_prev $end
$upscope $end
$scope module chk_i $end
$var wire 1 C ack $end
$var wire 4 t bus_type [3:0] $end
$var wire 1 ? clk $end
$var wire 32 u data_i [31:0] $end
$var wire 32 v data_o [31:0] $end
$var wire 1 w rst $end
$var wire 4 x sel [3:0] $end
$var wire 1 y we $end
$var wire 1 + stb $end
$var wire 1 , cyc $end
$var wire 3 z cti [2:0] $end
$var wire 32 { addr [31:0] $end
$var reg 1 | ack_prev $end
$var reg 1 } addr_change_during_transaction $end
$var reg 32 ~ addr_prev [31:0] $end
$var reg 3 !" cti_prev [2:0] $end
$var reg 1 "" cyc_prev $end
$var reg 1 #" cyc_without_stb $end
$var reg 1 $" data_change_during_transaction $end
$var reg 32 %" data_prev [31:0] $end
$var reg 1 &" early_cyc_termination $end
$var reg 128 '" error_msg [127:0] $end
$var reg 1 (" invalid_cti $end
$var reg 1 ( protocol_error $end
$var reg 1 )" stb_prev $end
$var reg 1 *" stb_without_cyc $end
$var reg 1 +" we_prev $end
$upscope $end
$scope module dut $end
$var wire 1 ? clk $end
$var wire 1 ," d_rbusy $end
$var wire 1 -" d_wbusy $end
$var wire 1 @ dwb_ack_i $end
$var wire 1 ." dwb_active $end
$var wire 2 /" dwb_bte_o [1:0] $end
$var wire 3 0" dwb_cti_o [2:0] $end
$var wire 1 4 dwb_cyc_o $end
$var wire 32 1" dwb_dat_i [31:0] $end
$var wire 1 2" dwb_new_req $end
$var wire 1 1 dwb_stb_o $end
$var wire 1 3" dwb_waiting $end
$var wire 1 0 dwb_we_o $end
$var wire 1 4" i_rbusy $end
$var wire 32 5" i_rdata [31:0] $end
$var wire 1 6" instr_hit $end
$var wire 1 7" instr_in_range $end
$var wire 8 8" irq_i [7:0] $end
$var wire 1 C iwb_ack_i $end
$var wire 2 9" iwb_bte_o [1:0] $end
$var wire 1 , iwb_cyc_o $end
$var wire 32 :" iwb_dat_i [31:0] $end
$var wire 32 ;" iwb_dat_o [31:0] $end
$var wire 1 <" iwb_last_beat $end
$var wire 4 =" iwb_sel_o [3:0] $end
$var wire 1 + iwb_stb_o $end
$var wire 1 & iwb_we_o $end
$var wire 1 H reset_n $end
$var wire 8 >" iwb_curr_off [7:0] $end
$var wire 2 ?" iwb_curr_idx [1:0] $end
$var wire 3 @" iwb_cti_o [2:0] $end
$var wire 8 A" iwb_base_end [7:0] $end
$var wire 8 B" iwb_base_calc [7:0] $end
$var wire 32 C" iwb_adr_o [31:0] $end
$var wire 8 D" instr_word_off [7:0] $end
$var wire 2 E" instr_word_idx [1:0] $end
$var wire 8 F" instr_word_addr [7:0] $end
$var wire 1 G" i_rstrb $end
$var wire 32 H" i_addr [31:0] $end
$var wire 1 I" dwb_we_comb $end
$var wire 4 J" dwb_sel_o [3:0] $end
$var wire 1 K" dwb_new_we $end
$var wire 4 L" dwb_new_sel [3:0] $end
$var wire 32 M" dwb_dat_o [31:0] $end
$var wire 32 N" dwb_adr_o [31:0] $end
$var wire 4 O" d_wmask [3:0] $end
$var wire 32 P" d_wdata [31:0] $end
$var wire 1 Q" d_rstrb $end
$var wire 32 R" d_rdata [31:0] $end
$var wire 32 S" d_addr [31:0] $end
$var parameter 32 T" ADDR_WIDTH $end
$var parameter 2 U" DWB_BTE $end
$var parameter 3 V" DWB_CTI $end
$var parameter 2 W" IWB_BTE $end
$var parameter 32 X" IWB_BURST_BITS $end
$var parameter 32 Y" IWB_BURST_LEN $end
$var parameter 8 Z" IWB_BURST_LEN_W $end
$var parameter 3 [" IWB_CTI $end
$var parameter 32 \" RESET_ADDR $end
$var reg 32 ]" d_rdata_reg [31:0] $end
$var reg 32 ^" dwb_adr_pending [31:0] $end
$var reg 32 _" dwb_dat_pending [31:0] $end
$var reg 1 `" dwb_pending $end
$var reg 4 a" dwb_sel_pending [3:0] $end
$var reg 1 b" dwb_we_pending $end
$var reg 32 c" i_rdata_reg [31:0] $end
$var reg 8 d" iwb_base_addr [7:0] $end
$var reg 3 e" iwb_beats_left [2:0] $end
$var reg 1 f" iwb_buf_valid $end
$var reg 1 g" iwb_burst_active $end
$var reg 8 h" iwb_burst_addr [7:0] $end
$var reg 4 i" iwb_word_valid [3:0] $end
$scope module core $end
$var wire 32 j" CSR_read [31:0] $end
$var wire 1 k" LOAD_sign $end
$var wire 32 l" aluIn1 [31:0] $end
$var wire 32 m" aluOut_base [31:0] $end
$var wire 32 n" aluOut_muldiv [31:0] $end
$var wire 1 ? clk $end
$var wire 1 o" current_unaligned_long $end
$var wire 1 ," d_rbusy $end
$var wire 32 p" d_rdata [31:0] $end
$var wire 1 Q" d_rstrb $end
$var wire 1 -" d_wbusy $end
$var wire 1 q" div_sign $end
$var wire 1 r" ex_fire $end
$var wire 1 s" ex_flush $end
$var wire 1 t" ex_stall $end
$var wire 1 4" i_rbusy $end
$var wire 32 u" i_rdata [31:0] $end
$var wire 1 G" i_rstrb $end
$var wire 30 v" instr [31:2] $end
$var wire 1 w" instr_ready $end
$var wire 1 x" interrupt $end
$var wire 1 y" interrupt_return $end
$var wire 8 z" irq_i [7:0] $end
$var wire 1 {" isALU $end
$var wire 1 |" isDivide $end
$var wire 1 }" predicate $end
$var wire 1 H reset_n $end
$var wire 32 ~" rs1 [31:0] $end
$var wire 32 !# rs2 [31:0] $end
$var wire 1 "# sign1 $end
$var wire 1 ## sign2 $end
$var wire 32 $# writeBackData [31:0] $end
$var wire 1 %# writeBack_en $end
$var wire 33 &# signed2 [32:0] $end
$var wire 33 '# signed1 [32:0] $end
$var wire 32 (# shifter_in [31:0] $end
$var wire 32 )# shifter [31:0] $end
$var wire 1 *# sel_mtvec $end
$var wire 1 +# sel_mstatus $end
$var wire 1 ,# sel_mepc $end
$var wire 1 -# sel_mcause $end
$var wire 1 .# sel_cyclesh $end
$var wire 1 /# sel_cycles $end
$var wire 5 0# rdId [4:0] $end
$var wire 32 1# quotientN [31:0] $end
$var wire 64 2# multiply [63:0] $end
$var wire 1 3# mem_halfwordAccess $end
$var wire 1 4# mem_byteAccess $end
$var wire 1 5# mcause_lock $end
$var wire 1 6# long_instr_if $end
$var wire 10 7# loadstore_addr [9:0] $end
$var wire 32 8# leftshift [31:0] $end
$var wire 1 9# isStore $end
$var wire 1 :# isSYSTEM $end
$var wire 1 ;# isMULHSU $end
$var wire 1 <# isMULH $end
$var wire 1 =# isLoad $end
$var wire 1 ># isLUI $end
$var wire 1 ?# isJALR $end
$var wire 1 @# isJAL $end
$var wire 1 A# isBranch $end
$var wire 1 B# isAUIPC $end
$var wire 1 C# isALUreg $end
$var wire 1 D# isALUimm $end
$var wire 8 E# irq_prio [7:0] $end
$var wire 32 F# irq_mcause [31:0] $end
$var wire 32 G# irq_cause [31:0] $end
$var wire 32 H# i_addr [31:0] $end
$var wire 8 I# funct3Is [7:0] $end
$var wire 1 J# funcM $end
$var wire 1 K# ex_valid $end
$var wire 1 L# divstep_do $end
$var wire 32 M# dividendN [31:0] $end
$var wire 32 N# decompressed [31:0] $end
$var wire 32 O# decomp_input [31:0] $end
$var wire 4 P# d_wmask [3:0] $end
$var wire 32 Q# d_wdata [31:0] $end
$var wire 32 R# d_addr [31:0] $end
$var wire 1 S# current_cache_hit $end
$var wire 32 T# cached_mem [31:0] $end
$var wire 1 U# any_irq $end
$var wire 32 V# aluPlus [31:0] $end
$var wire 32 W# aluOut [31:0] $end
$var wire 33 X# aluMinus [32:0] $end
$var wire 32 Y# aluIn2 [31:0] $end
$var wire 1 Z# aluBusy $end
$var wire 32 [# Uimm [31:0] $end
$var wire 32 \# Simm [31:0] $end
$var wire 4 ]# STORE_wmask [3:0] $end
$var wire 10 ^# PCplusImm [9:0] $end
$var wire 10 _# PCplus4_if [9:0] $end
$var wire 10 `# PCplus2_if [9:0] $end
$var wire 10 a# PCinc [9:0] $end
$var wire 10 b# PC_new [9:0] $end
$var wire 1 c# LTU $end
$var wire 1 d# LT $end
$var wire 16 e# LOAD_halfword [15:0] $end
$var wire 32 f# LOAD_data [31:0] $end
$var wire 8 g# LOAD_byte [7:0] $end
$var wire 32 h# Jimm [31:0] $end
$var wire 32 i# Iimm [31:0] $end
$var wire 1 j# EQ $end
$var wire 32 k# CSR_write [31:0] $end
$var wire 32 l# CSR_modifier [31:0] $end
$var wire 32 m# Bimm [31:0] $end
$var parameter 32 n# ADDR_WIDTH $end
$var parameter 32 o# RESET_ADDR $end
$var reg 10 p# PC_if [9:0] $end
$var reg 8 q# cached_addr [9:2] $end
$var reg 32 r# cached_data [31:0] $end
$var reg 64 s# cycles [63:0] $end
$var reg 32 t# divResult [31:0] $end
$var reg 32 u# dividend [31:0] $end
$var reg 63 v# divisor [62:0] $end
$var reg 1 w# fetch_second_half $end
$var reg 30 x# id_instr [31:2] $end
$var reg 1 y# id_long $end
$var reg 10 z# id_pc [9:0] $end
$var reg 1 K# id_valid $end
$var reg 1 {# if_pending $end
$var reg 1 |# interrupt_request_sticky $end
$var reg 32 }# mcause [31:0] $end
$var reg 10 ~# mepc [9:0] $end
$var reg 1 !$ mstatus $end
$var reg 10 "$ mtvec [9:0] $end
$var reg 32 #$ quotient [31:0] $end
$var reg 32 $$ quotient_msk [31:0] $end
$var integer 32 %$ _i_p2 [31:0] $end
$scope module _decomp_p2 $end
$var wire 32 &$ c [31:0] $end
$var wire 12 '$ swspImm [11:0] $end
$var wire 5 ($ shiftImm [4:0] $end
$var wire 5 )$ rwl [4:0] $end
$var wire 5 *$ rwh [4:0] $end
$var wire 5 +$ rcl [4:0] $end
$var wire 5 ,$ rch [4:0] $end
$var wire 12 -$ lwswImm [11:0] $end
$var wire 12 .$ lwspImm [11:0] $end
$var wire 32 /$ luiImm [31:0] $end
$var wire 21 0$ jalImm [20:0] $end
$var wire 13 1$ bImm [12:0] $end
$var wire 12 2$ addi4spnImm [11:0] $end
$var wire 12 3$ addi16spImm [11:0] $end
$var wire 12 4$ addImm [11:0] $end
$var parameter 32 5$ illegal $end
$var parameter 32 6$ unknown $end
$var parameter 5 7$ x0 $end
$var parameter 5 8$ x1 $end
$var parameter 5 9$ x2 $end
$var reg 32 :$ d [31:0] $end
$upscope $end
$upscope $end
$upscope $end
$upscope $end
$enddefinitions $end
$comment Show the parameter values. $end
$dumpall
b10 9$
b1 8$
b0 7$
b0 6$
b0 5$
b0 o#
b1010 n#
b0 \"
b111 ["
b100 Z"
b100 Y"
b10 X"
b0 W"
b111 V"
b0 U"
b1010 T"
b100 >
b0 =
b11 <
b100000000 ;
b100 :
b1010 9
$end
#0
$dumpvars
b0 :$
bx 4$
bx0000 3$
b0xxxxxxxx00 2$
bx0 1$
bx0 0$
bx000000000000 /$
b0xxxxxx00 .$
b0xxxxx00 -$
b1xxx ,$
b1xxx +$
bx *$
bx )$
bx ($
b0xxxxxx00 '$
bx &$
b100000 %$
bx $$
bx #$
bx "$
x!$
bx ~#
bx }#
x|#
x{#
bx z#
xy#
bx x#
xw#
bx v#
bx u#
bx t#
bx s#
bx r#
bx q#
bx p#
bx0 m#
bx l#
bx k#
xj#
bx i#
bx0 h#
bx g#
bx f#
bx e#
xd#
xc#
bx b#
bx a#
bx `#
bx _#
bx ^#
bx ]#
bx \#
bx000000000000 [#
xZ#
bx Y#
bx X#
bx W#
bx V#
0U#
bx T#
xS#
b0xxxxxxxxxx R#
bx Q#
bx P#
bx O#
b0 N#
bx M#
xL#
xK#
xJ#
bx I#
b0xxxxxxxx00 H#
b0 G#
bx0000000000000000000000000000000 F#
b0 E#
xD#
xC#
xB#
xA#
x@#
x?#
x>#
x=#
x<#
x;#
x:#
x9#
bx 8#
bx 7#
x6#
x5#
x4#
x3#
bx 2#
bx 1#
bx 0#
x/#
x.#
x-#
x,#
x+#
x*#
bx )#
bx (#
bx '#
bx &#
x%#
bx $#
x##
x"#
bx !#
bx ~"
x}"
x|"
x{"
b0 z"
xy"
xx"
xw"
bx v"
bx u"
xt"
xs"
xr"
xq"
bx p"
xo"
bx n"
bx m"
bx l"
xk"
bx j"
bx i"
bx h"
xg"
xf"
bx e"
bx d"
bx c"
xb"
bx a"
x`"
bx _"
bx ^"
bx ]"
b0xxxxxxxxxx S"
bx R"
xQ"
bx P"
bx O"
bx N"
bx M"
bx L"
xK"
bx J"
xI"
b0xxxxxxxx00 H"
xG"
bx F"
bx E"
bx D"
b0xxxxxxxx00 C"
bx B"
bx A"
bx1x @"
bx ?"
bx >"
b1111 ="
x<"
b0 ;"
bx :"
b0 9"
b0 8"
x7"
x6"
bx 5"
x4"
x3"
x2"
bx 1"
b111 0"
b0 /"
x."
x-"
x,"
x+"
x*"
x)"
x("
bx '"
x&"
bx %"
x$"
x#"
x""
bx !"
bx ~
x}
x|
b0xxxxxxxx00 {
bx1x z
0y
b1111 x
1w
b0 v
bx u
b0 t
xs
xr
xq
xp
bx o
xn
bx m
xl
xk
xj
bx i
bx h
xg
xf
bx e
bx d
bx c
1b
bx a
b111 `
b1 _
bx ^
x]
bx \
x[
bx Z
bx Y
b0xxxxxx X
bx1x W
1V
xU
b0xxxxxxxx T
b0 S
bx R
b111110100 Q
b10111011100 P
b111110100 O
b0 N
b0 M
b100000000 L
b0 K
b0 J
b0 I
0H
b0 G
b0 F
bx E
bx D
xC
b0 B
bx A
x@
0?
x8
bx 7
bx 6
bx 5
x4
bx 3
bx 2
x1
x0
bx /
b0xxxxxxxx00 .
bx1x -
x,
x+
x*
bx )
x(
bx '
0&
b1111 %
b0 $
b0 #
b111 "
b0 !
$end
#5000
b0 W#
b0 m"
1}"
b0 n"
b1 ]#
b0 6
b10 b#
b0 8#
0q"
0,"
b0 ^#
0d#
b0 )#
b0 2#
0##
0c#
1j#
b0 j"
b0 k#
03"
b1111 2
b1111 c
b1111 J"
0-"
b0 F#
b0 S"
b0 R#
b0 7#
b0 (#
0"#
b0 X#
b0 3
b0 d
b0 M"
04
01
0."
b1111 L"
00
0I"
b0 B"
b0 1#
b0 M#
0x"
0<#
0;#
0{"
0y"
b0 V#
b0 &#
b0 Y#
b0 P"
b0 Q#
0|"
b0 l#
02"
0K"
b0 O"
b0 P#
0%#
0s"
b0 F"
0o"
06"
b10 a#
b0 0#
b1 I#
b0 [#
b0 i#
b0 \#
b0 m#
b0 h#
1=#
0D#
0B#
09#
0C#
0>#
0A#
0?#
0@#
0:#
b0 '#
b0 l"
b0 ~"
b0 !#
0J#
14#
03#
0+#
0*#
0,#
0-#
0/#
0.#
0Q"
0r"
0t"
0w"
04"
b0 H"
b0 H#
0S#
b0 5
b0 e
b0 N"
b111 -
b111 W
b111 z
b111 @"
0U
0<"
b0 t#
0Z#
b0 $$
b0 #$
1L#
b0 v#
b0 u#
0|#
05#
b0 }#
b0 ~#
b0 "$
0!$
0y#
b0 z#
b0 v"
b0 x#
0K#
0G"
0{#
0w#
b0 r#
b11111111 q#
b100 _#
b10 `#
b0 p#
0`"
0f"
b0 i"
b0 e"
0+
0,
0g"
b0 %"
b0xxxxxxxx00 ~
bx1x !"
0+"
0&"
0}
0$"
0("
0*"
0#"
0(
b111 i
0n
0g
0l
0p
0r
0k
0*
b0 ^
0[
08
b0 Y
0]
b1 E
b0 R
b0 A
b0 a
b0 1"
b0 D
b0 u
b0 :"
0@
0C
1?
#10000
0?
#15000
b0 m
b0 h
0f
0s
0q
0j
b111 !"
0|
0)"
0""
1?
#20000
0?
#25000
1?
#30000
0?
#35000
1?
#40000
0?
#45000
0w"
14"
1G"
1{#
0w
0b
0V
1H
1?
#50000
0?
#55000
b0 X
b0 ?"
b0 /
b0 T
17"
b0 E"
b10 -
b10 W
b10 z
b10 @"
1U
b10 E
b1 J
1f"
b100 e"
b0 >"
b0 .
b0 {
b0 C"
b0 h"
b100 A"
b0 D"
b0 d"
1+
1,
1g"
1?
#60000
0?
#65000
b0 ~
b10 !"
1)"
1""
b10 J
b100 E
b1 N
b100000000000000000010010011 D
b100000000000000000010010011 u
b100000000000000000010010011 :"
1C
b10 R
1?
#70000
0?
#75000
1w"
16#
b100000000000000000010010011 N#
b100000000000000000010010011 :$
b1100 +$
b1001 ,$
b100 )$
b1 *$
b100 ($
b1000000 2$
b0 -$
b100 .$
b1000000 '$
b100000000 3$
b100 4$
b100 1$
b1000100 0$
b100000000000000 /$
b100000000000000000010010011 O#
b100000000000000000010010011 &$
04"
b100000000000000000010010011 T#
b100000000000000000010010011 5"
b100000000000000000010010011 u"
b1 ?"
b1 /
b1 T
16"
0C
b1 R
b10 N
b1000 E
b11 J
b0 Z
b1 Y
1]
1|
b100000000000000000010010011 c"
b1 >"
b100 .
b100 {
b100 C"
b1 h"
b11 e"
b1 i"
1?
#80000
0?
#85000
b1000000 W#
b1000000 m"
0}"
06"
1d#
b10000 6
0,"
b1 E"
b100 b#
1c#
0j#
b1000000 5
b1000000 e
b1000000 N"
03"
b1 D"
b1 F"
b111111111111111111111111111000000 X#
b1000000 S"
b1000000 R#
b1000000 7#
b1000000 $#
04
01
0."
b100 H"
b100 H#
b1000000 V#
b1000000 &#
b1000000 Y#
1{"
02"
1%#
0w"
b100 a#
b1 0#
b100000000000000000000000000 [#
b1000000 i#
b1000001 \#
b100001000000 m#
b1000000 h#
0=#
1D#
0Q"
1r"
b1000 _#
b110 `#
b100 p#
0G"
0{#
1y#
b1000000000000000000100100 v"
b1000000000000000000100100 x#
1K#
b100000000000000000010010011 r#
0S#
b0 q#
b100 ~
0|
b1 ^
b100 J
b10001 E
b11 N
b1001000000000000100010011 D
b1001000000000000100010011 u
b1001000000000000100010011 :"
1C
b0 R
1?
#90000
0?
#95000
b1001000000000000100010011 N#
b1001000000000000100010011 :$
b1010 ,$
b10 *$
b10000000 2$
b10000000 '$
b10000000100 0$
b1001000000000000100010011 O#
b1001000000000000100010011 &$
b1001000000000000100010011 T#
0%#
b1001000000000000100010011 5"
b1001000000000000100010011 u"
b10 ?"
b10 /
b10 T
16"
0r"
1w"
04"
b1 R
b100 N
b100011 E
b101 J
b1 M
b10 Y
b10 ^
b1000000 h
1|
b1001000000000000100010011 c"
b10 >"
b1000 .
b1000 {
b1000 C"
b10 h"
b10 e"
b11 i"
0K#
1G"
1{#
1?
#100000
0?
#105000
b10010 $#
b10010 W#
b10010 m"
b100 ]#
b100 6
b10 E"
b1000 b#
b10010 5
b10010 e
b10010 N"
b10 D"
b10 F"
b111111111111111111111111111101110 X#
b10010 S"
b10010 R#
b10010 7#
b111 -
b111 W
b111 z
b111 @"
b1000 H"
b1000 H#
b10010 V#
b10010 &#
b10010 Y#
1%#
0w"
b1000 a#
b10 0#
b1001000000000000000000000 [#
b10010 i#
b10 \#
b10 m#
b10010 h#
1r"
b11 ?"
b11 /
b11 T
1<"
b1100 _#
b1010 `#
b1000 p#
0G"
0{#
b100 ^#
b100 z#
b10010000000000001000100 v"
b10010000000000001000100 x#
1K#
b1001000000000000100010011 r#
0S#
b1 q#
b11 >"
b1100 .
b1100 {
b1100 C"
b11 h"
b1 e"
b111 i"
b1000 ~
b11 Y
b11 ^
b110 J
b1000111 E
b101 N
b1000001010000000100011 D
b1000001010000000100011 u
b1000001010000000100011 :"
b0 R
1?
#110000
0?
#115000
0%#
0U
0<"
0r"
1w"
b1010000110000011 D
b1010000110000011 u
b1010000110000011 :"
b11 R
b1 I
b110 N
b10001110 E
b111 J
b10 M
b0 Y
0]
b0 ^
b10010 h
b1100 ~
b111 !"
b1000001010000000100011 c"
b0 e"
0+
0,
0g"
b1111 i"
0K#
1G"
1{#
1?
#120000
0?
#125000
b11 E"
b1010000110000011 N#
b1010000110000011 :$
b1000 +$
b1011 ,$
b0 )$
b11 *$
b0 ($
b11000000 2$
b0 .$
b11000000 '$
b0 3$
b0 4$
b0 1$
b10001000000 0$
b0 /$
b1100 b#
b11 D"
b11 F"
b1010000110000011 O#
b1010000110000011 &$
b1100 H"
b1100 H#
b1010000110000011 T#
b1010000110000011 5"
b1010000110000011 u"
1%#
0w"
b1100 a#
1r"
b10000 _#
b1110 `#
b1100 p#
0G"
0{#
b1000 ^#
b1000 z#
1K#
0S#
b10 q#
b1010000110000011 c"
0)"
0""
b1000 J
b11100 E
0C
b0 R
1?
#130000
0?
#135000
b1000001010000000100011 N#
b1000001010000000100011 :$
b1000 ,$
b1000 )$
b0 *$
b1000 ($
b1000 2$
b1000000 -$
b1000 .$
b0 '$
b1000000 3$
b1000 4$
b1000000 1$
b1000 0$
b1000000000000000 /$
b1000001010000000100011 O#
b1000001010000000100011 &$
b1000001010000000100011 T#
0%#
b1000001010000000100011 5"
b1000001010000000100011 u"
0r"
1w"
b111000 E
b1001 J
b11 M
0|
0K#
1G"
1{#
1?
#140000
0?
#145000
1t"
b0 W#
b0 m"
b0 $#
1-"
06"
13"
b1000000000000000000000000000 8#
14
11
1."
b100 B"
07"
b0 E"
b1010000110000011 N#
b1010000110000011 :$
b1011 ,$
b0 )$
b11 *$
b0 ($
b11000000 2$
b0 -$
b0 .$
b11000000 '$
b0 3$
b0 4$
b0 1$
b10001000000 0$
b0 /$
b10000 b#
b10000 )#
10
1I"
12"
b1000000 k#
b10000 6
b100 D"
b100 F"
b1010000110000011 O#
b1010000110000011 &$
1K"
b1111 O"
b1111 P#
0d#
b10010 3
b10010 d
b10010 M"
b1000000 5
b1000000 e
b1000000 N"
b10000 H"
b10000 H#
b1010000110000011 T#
b1010000110000011 5"
b1010000110000011 u"
1;#
b10 &#
b10 Y#
0{"
0c#
b1000000 (#
b1000000 l#
b10010 P"
b10010 Q#
b1000000 S"
b1000000 R#
b1000000 7#
b1111 ]#
0%#
0w"
b10000 a#
b0 0#
b100 I#
b1000001010000000000000 [#
b10 i#
b0 \#
b0 m#
b1010000000000010 h#
0D#
19#
b1000010 V#
b111110 X#
b10000000 2#
b1000000 '#
b1000000 l"
b1000000 ~"
b10010 !#
04#
0r"
b10100 _#
b10010 `#
b10000 p#
0G"
0{#
b1100 ^#
b1100 z#
b10000010100000001000 v"
b10000010100000001000 x#
1K#
b1000001010000000100011 r#
0S#
b11 q#
b1010 J
b1110001 E
1?
#150000
0?
#155000
1r"
0t"
0-"
03"
1@
b1 S
b11100010 E
b1011 J
b10010 m
b1000000 h
1s
1q
1j
b1111 a"
b10010 _"
b1000000 ^"
1b"
1`"
1?
#160000
0?
#165000
04
01
0."
0k"
b0 g#
00
0I"
02"
0K"
b0 O"
b0 P#
b0 e#
b0 f#
0r"
0w"
14"
0K#
1G"
1{#
b0 R"
b0 ]"
b0 p"
0`"
1f
b100 M
b1100 J
b11000100 E
b10 S
1?
#170000
0?
#175000
b1 X
b0 ?"
b100 /
b100 T
17"
b10 -
b10 W
b10 z
b10 @"
1U
0@
b10001001 E
b1101 J
0s
0q
0j
b0 i"
b100 e"
b10000 .
b10000 {
b10000 C"
b100 h"
b1000 A"
b0 D"
b0 >"
b100 d"
1+
1,
1g"
1?
#180000
0?
#185000
b10000 ~
b10 !"
1)"
1""
0f
b1110 J
b10010 E
b111 N
b100011000001000010011 D
b100011000001000010011 u
b100011000001000010011 :"
1C
b1 R
1?
#190000
0?
#195000
1w"
b100011000001000010011 N#
b100011000001000010011 :$
b1100 +$
b1100 ,$
b100 )$
b100 *$
b100 ($
b100000000 2$
b100 .$
b100 '$
b100000000 3$
b100 4$
b100 1$
b100000100 0$
b100000000000000 /$
b100011000001000010011 O#
b100011000001000010011 &$
04"
b100011000001000010011 T#
b100011000001000010011 5"
b100011000001000010011 u"
b1 ?"
b101 /
b101 T
16"
b0 R
b1000 N
b100101 E
b1111 J
b100 Z
b1 Y
1]
1|
b100011000001000010011 c"
b1 >"
b10100 .
b10100 {
b10100 C"
b101 h"
b11 e"
b1 i"
1?
#200000
0?
#205000
b1 $#
b1 W#
b1 m"
03"
b1 E"
b10100 b#
1%#
b0 8#
b0 k#
b0 6
04
01
0."
b1 D"
b101 F"
1d#
b0 )#
b1000000000000000100000001000000 3
b1000000000000000100000001000000 d
b1000000000000000100000001000000 M"
b1 5
b1 e
b1 N"
00
0I"
02"
b10100 H"
b10100 H#
0;#
b1 &#
b1 Y#
1{"
1c#
b0 (#
b0 l#
b1000000000000000100000001000000 P"
b1000000000000000100000001000000 Q#
b1 S"
b1 R#
b1 7#
b10 ]#
0K"
b0 O"
b0 P#
0w"
b10100 a#
b100 0#
b1 I#
b100011000000000000000 [#
b1 i#
b100 \#
b100 m#
b11000100000000000 h#
1D#
09#
b1 V#
b111111111111111111111111111111111 X#
b0 2#
b0 '#
b0 l"
b0 ~"
b1000000 !#
14#
1r"
b10 ?"
b110 /
b110 T
b11000 _#
b10110 `#
b10100 p#
0G"
0{#
b10000 ^#
b10000 z#
b1000110000010000100 v"
b1000110000010000100 x#
1K#
b100011000001000010011 r#
0S#
b100 q#
b10 >"
b11000 .
b11000 {
b11000 C"
b110 h"
b10 e"
b11 i"
b10100 ~
b10 Y
b1 ^
b10000 J
b1001011 E
b1001 N
b10000001010001000100011 D
b10000001010001000100011 u
b10000001010001000100011 :"
b1 R
1?
#210000
0?
#215000
b111 -
b111 W
b111 z
b111 @"
0%#
b11 ?"
b111 /
b111 T
1<"
0r"
1w"
b1000000000000000001010010011 D
b1000000000000000001010010011 u
b1000000000000000001010010011 :"
b0 R
b1010 N
b10010111 E
b10001 J
b101 M
b11 Y
b10 ^
b1000000000000000100000001000000 m
b1 h
b11000 ~
b10000001010001000100011 c"
b11 >"
b11100 .
b11100 {
b11100 C"
b111 h"
b1 e"
b111 i"
0K#
1G"
1{#
1?
#220000
0?
